Nome matrice;N. Righe;N. Colonne;N. non-zero;Tempo calcolo;Stato;Err. Relativo;
ns3Da.mtx;20414;20414;1679599;19621;Converged;3,72538710168942E-06;
poisson2D.mtx;367;367;2417;24;Converged;1,16361679167233E-05;
poisson3Da.mtx;13514;13514;352762;824;Converged;3,21442656560679E-05;
poisson3Db.mtx;85623;85623;2374949;8171;Converged;0,00014484970622471;
problem1.mtx;415;415;2779;945;StoppedWithoutConvergence;7,99075130928899E+25;
sme3Da.mtx;12504;12504;874887;18291;StoppedWithoutConvergence;0,634234407098802;
sme3Db.mtx;29067;29067;2081063;43504;StoppedWithoutConvergence;0,529735543607561;
sme3Dc.mtx;42930;42930;3148656;63526;StoppedWithoutConvergence;0,657160255884982;
Method Used:;GpBiCg;
Max Iterations:;1000;
Tollerance:;1E-06;Max error:;0,1;


ns3Da.mtx;20414;20414;1679599;23197;Converged;3,72538710168942E-06;
poisson2D.mtx;367;367;2417;28;Converged;1,16361679167233E-05;
poisson3Da.mtx;13514;13514;352762;913;Converged;3,21442656560679E-05;
poisson3Db.mtx;85623;85623;2374949;9005;Converged;0,00014484970622471;
problem1.mtx;415;415;2779;3981;StoppedWithoutConvergence;8,42378116986689E+98;
sme3Da.mtx;12504;12504;874887;57541;Diverged;0,474653311420114;
sme3Db.mtx;29067;29067;2081063;79504;Diverged;0,452233213677938;
sme3Dc.mtx;42930;42930;3148656;169699;Diverged;0,509073757712567;
Method Used:;GpBiCg;
Max Iterations:;3000;
Tollerance:;1E-06;Max error:;0,1;


ns3Da.mtx;20414;20414;1679599;21826;Converged;3,72538710168942E-06;
poisson2D.mtx;367;367;2417;40;Converged;1,16361679167233E-05;
poisson3Da.mtx;13514;13514;352762;840;Converged;3,21442656560679E-05;
poisson3Db.mtx;85623;85623;2374949;9281;Converged;0,00014484970622471;
problem1.mtx;415;415;2779;5894;StoppedWithoutConvergence;8,11950912442602E+150;
sme3Da.mtx;12504;12504;874887;58316;Diverged;0,474653311420114;
sme3Db.mtx;29067;29067;2081063;79073;Diverged;0,452233213677938;
sme3Dc.mtx;42930;42930;3148656;171520;Diverged;0,509073757712567;
Method Used:;GpBiCg;
Max Iterations:;5000;
Tollerance:;1E-06;Max error:;0,1;


ns3Da.mtx;20414;20414;1679599;22499;Converged;3,72538710168942E-06;
poisson2D.mtx;367;367;2417;24;Converged;1,16361679167233E-05;
poisson3Da.mtx;13514;13514;352762;797;Converged;3,21442656560679E-05;
poisson3Db.mtx;85623;85623;2374949;10580;Converged;0,00014484970622471;
problem1.mtx;415;415;2779;6800;Diverged;NaN;
sme3Da.mtx;12504;12504;874887;60222;Diverged;0,474653311420114;
sme3Db.mtx;29067;29067;2081063;80604;Diverged;0,452233213677938;
sme3Dc.mtx;42930;42930;3148656;172277;Diverged;0,509073757712567;
Method Used:;GpBiCg;
Max Iterations:;10000;
Tollerance:;1E-06;Max error:;0,1;


